{
  "shell_port": 45077,
  "iopub_port": 44659,
  "stdin_port": 57863,
  "control_port": 59301,
  "hb_port": 45133,
  "ip": "127.0.0.1",
  "key": "46a4b218-fdb28b6b66544f19ecbff13c",
  "transport": "tcp",
  "signature_scheme": "hmac-sha256",
  "kernel_name": ""
}